<?xml version="1.0" encoding="UTF-8"?><svg xmlns="http://www.w3.org/2000/svg" xmlns:xlink="http://www.w3.org/1999/xlink" fill-opacity="1" color-rendering="auto" color-interpolation="auto" text-rendering="auto" stroke="black" stroke-linecap="square" width="771" stroke-miterlimit="10" shape-rendering="auto" stroke-opacity="1" fill="black" stroke-dasharray="none" font-weight="normal" stroke-width="1" height="170" font-family="'Dialog'" font-style="normal" stroke-linejoin="miter" font-size="12px" stroke-dashoffset="0" image-rendering="auto">
  <!--Generated by ySVG 2.6-->
  <defs id="genericDefs"/>
  <g>
    <defs id="defs1">
      <clipPath clipPathUnits="userSpaceOnUse" id="clipPath1">
        <path d="M0 0 L771 0 L771 170 L0 170 L0 0 Z"/>
      </clipPath>
      <clipPath clipPathUnits="userSpaceOnUse" id="clipPath2">
        <path d="M70 310 L841 310 L841 480 L70 480 L70 310 Z"/>
      </clipPath>
    </defs>
    <g fill="rgb(231,111,0)" text-rendering="geometricPrecision" shape-rendering="geometricPrecision" transform="matrix(1,0,0,1,-70,-310)" stroke="rgb(231,111,0)">
      <ellipse rx="60" ry="61.5" clip-path="url(#clipPath2)" cx="145" cy="386.5" stroke="none"/>
    </g>
    <g text-rendering="geometricPrecision" stroke-miterlimit="1.45" shape-rendering="geometricPrecision" transform="matrix(1,0,0,1,-70,-310)" stroke-linecap="butt">
      <ellipse rx="60" fill="none" ry="61.5" clip-path="url(#clipPath2)" cx="145" cy="386.5"/>
      <text x="134.1999" xml:space="preserve" y="382.984" clip-path="url(#clipPath2)" font-family="sans-serif" stroke="none">AoT</text>
      <text x="104.3257" xml:space="preserve" y="399.3281" clip-path="url(#clipPath2)" font-family="sans-serif" stroke="none">Ahead of Time</text>
    </g>
    <g fill="rgb(231,111,0)" text-rendering="geometricPrecision" shape-rendering="geometricPrecision" transform="matrix(1,0,0,1,-70,-310)" stroke="rgb(231,111,0)">
      <ellipse rx="60" ry="61.5" clip-path="url(#clipPath2)" cx="766" cy="386.5" stroke="none"/>
    </g>
    <g text-rendering="geometricPrecision" stroke-miterlimit="1.45" shape-rendering="geometricPrecision" transform="matrix(1,0,0,1,-70,-310)" stroke-linecap="butt">
      <ellipse rx="60" fill="none" ry="61.5" clip-path="url(#clipPath2)" cx="766" cy="386.5"/>
      <text x="759.478" xml:space="preserve" y="382.984" clip-path="url(#clipPath2)" font-family="sans-serif" stroke="none">JiT</text>
      <text x="733.3597" xml:space="preserve" y="399.3281" clip-path="url(#clipPath2)" font-family="sans-serif" stroke="none">Just in Time</text>
    </g>
    <g transform="matrix(1,0,0,1,-70,-310)" fill-opacity="0.749" fill="rgb(231,111,0)" text-rendering="geometricPrecision" shape-rendering="geometricPrecision" stroke="rgb(231,111,0)" stroke-opacity="0.749">
      <path d="M256 367.032 L283.532 339.5 L322.468 339.5 L350 367.032 L350 405.968 L322.468 433.5 L283.532 433.5 L256 405.968 Z" fill-rule="evenodd" clip-path="url(#clipPath2)" stroke="none"/>
    </g>
    <g text-rendering="geometricPrecision" stroke-miterlimit="1.45" shape-rendering="geometricPrecision" transform="matrix(1,0,0,1,-70,-310)" stroke-linecap="butt">
      <path fill="none" d="M256 367.032 L283.532 339.5 L322.468 339.5 L350 367.032 L350 405.968 L322.468 433.5 L283.532 433.5 L256 405.968 Z" fill-rule="evenodd" clip-path="url(#clipPath2)"/>
      <text x="291.3959" xml:space="preserve" y="391.156" clip-path="url(#clipPath2)" font-family="sans-serif" stroke="none">Link</text>
    </g>
    <g transform="matrix(1,0,0,1,-70,-310)" fill-opacity="0.749" fill="rgb(231,111,0)" text-rendering="geometricPrecision" shape-rendering="geometricPrecision" stroke="rgb(231,111,0)" stroke-opacity="0.749">
      <path d="M556 367.032 L583.532 339.5 L622.468 339.5 L650 367.032 L650 405.968 L622.468 433.5 L583.532 433.5 L556 405.968 Z" fill-rule="evenodd" clip-path="url(#clipPath2)" stroke="none"/>
    </g>
    <g text-rendering="geometricPrecision" stroke-miterlimit="1.45" shape-rendering="geometricPrecision" transform="matrix(1,0,0,1,-70,-310)" stroke-linecap="butt">
      <path fill="none" d="M556 367.032 L583.532 339.5 L622.468 339.5 L650 367.032 L650 405.968 L622.468 433.5 L583.532 433.5 L556 405.968 Z" fill-rule="evenodd" clip-path="url(#clipPath2)"/>
      <text x="591.5339" xml:space="preserve" y="391.156" clip-path="url(#clipPath2)" font-family="sans-serif" stroke="none">CDS</text>
    </g>
    <g fill="rgb(231,111,0)" text-rendering="geometricPrecision" shape-rendering="geometricPrecision" transform="matrix(1,0,0,1,-70,-310)" stroke="rgb(231,111,0)">
      <path d="M406 367.0323 L433.532 339.5 L472.468 339.5 L500 367.0323 L500 405.9677 L472.468 433.5 L433.532 433.5 L406 405.9677 Z" fill-rule="evenodd" clip-path="url(#clipPath2)" stroke="none"/>
    </g>
    <g text-rendering="geometricPrecision" stroke-miterlimit="1.45" shape-rendering="geometricPrecision" transform="matrix(1,0,0,1,-70,-310)" stroke-linecap="butt">
      <path fill="none" d="M406 367.0323 L433.532 339.5 L472.468 339.5 L500 367.0323 L500 405.9677 L472.468 433.5 L433.532 433.5 L406 405.9677 Z" fill-rule="evenodd" clip-path="url(#clipPath2)"/>
      <text x="419.4778" xml:space="preserve" y="391.156" clip-path="url(#clipPath2)" font-family="sans-serif" stroke="none">Condensers</text>
      <path fill="none" d="M205 386.5 L247.9619 386.5" clip-path="url(#clipPath2)"/>
      <path d="M255.9619 386.5 L243.9619 381.5 L246.9619 386.5 L243.9619 391.5 Z" clip-path="url(#clipPath2)" stroke="none"/>
      <path fill="none" d="M734.961 439.1313 L725.0798 455.8864 L722.2324 459.6548 L718.77 462.3466 L714.6925 463.9616 L710 464.5 L627 464.5 L622.5146 463.8848 L619.0583 462.0393 L616.6312 458.9635 L615.2333 454.6573 L612.8557 441.4103" clip-path="url(#clipPath2)"/>
      <path d="M611.4424 433.5361 L608.641 446.2307 L613.0323 442.3946 L618.4837 444.4641 Z" clip-path="url(#clipPath2)" stroke="none"/>
      <path fill="none" d="M649.9978 386.5 L698 386.5" clip-path="url(#clipPath2)"/>
      <path d="M706 386.5 L694 381.5 L697 386.5 L694 391.5 Z" clip-path="url(#clipPath2)" stroke="none"/>
      <path fill="none" d="M349.9995 386.5 L398.0306 386.5" clip-path="url(#clipPath2)"/>
      <path d="M406.0306 386.5 L394.0306 381.5 L397.0306 386.5 L394.0306 391.5 Z" clip-path="url(#clipPath2)" stroke="none"/>
      <path fill="none" d="M499.9849 386.5 L547.9943 386.5" clip-path="url(#clipPath2)"/>
      <path d="M555.9943 386.5 L543.9943 381.5 L546.9943 386.5 L543.9943 391.5 Z" clip-path="url(#clipPath2)" stroke="none"/>
    </g>
  </g>
</svg>
